^C:\USERS\GLIZA\DESKTOP\ANUL 2 DE FACULTATE\SEMESTRUL I\STANDARD TO MODERN C++\QUARTO.GIT\QUARTO\QUARTO\PIECE.CPP
/c /ZI /JMC /nologo /W3 /WX- /diagnostics:column /sdl /Od /Oy- /D WIN32 /D _DEBUG /D _CONSOLE /D _UNICODE /D UNICODE /Gm- /EHsc /RTC1 /MDd /GS /fp:precise /permissive- /Zc:wchar_t /Zc:forScope /Zc:inline /std:c++17 /Fo"DEBUG\\" /Fd"DEBUG\VC142.PDB" /external:env:EXTERNAL_INCLUDE /external:W3 /Gd /TP /analyze- /FC C:\USERS\GLIZA\DESKTOP\ANUL 2 DE FACULTATE\SEMESTRUL I\STANDARD TO MODERN C++\QUARTO.GIT\QUARTO\QUARTO\PIECE.CPP
^C:\USERS\GLIZA\DESKTOP\ANUL 2 DE FACULTATE\SEMESTRUL I\STANDARD TO MODERN C++\QUARTO.GIT\QUARTO\QUARTO\BOARD.CPP
/c /ZI /JMC /nologo /W3 /WX- /diagnostics:column /sdl /Od /Oy- /D WIN32 /D _DEBUG /D _CONSOLE /D _UNICODE /D UNICODE /Gm- /EHsc /RTC1 /MDd /GS /fp:precise /permissive- /Zc:wchar_t /Zc:forScope /Zc:inline /std:c++17 /Fo"DEBUG\\" /Fd"DEBUG\VC142.PDB" /external:env:EXTERNAL_INCLUDE /external:W3 /Gd /TP /analyze- /FC C:\USERS\GLIZA\DESKTOP\ANUL 2 DE FACULTATE\SEMESTRUL I\STANDARD TO MODERN C++\QUARTO.GIT\QUARTO\QUARTO\BOARD.CPP
^C:\USERS\GLIZA\DESKTOP\ANUL 2 DE FACULTATE\SEMESTRUL I\STANDARD TO MODERN C++\QUARTO.GIT\QUARTO\QUARTO\UNUSEDPIECES.CPP
/c /ZI /JMC /nologo /W3 /WX- /diagnostics:column /sdl /Od /Oy- /D WIN32 /D _DEBUG /D _CONSOLE /D _UNICODE /D UNICODE /Gm- /EHsc /RTC1 /MDd /GS /fp:precise /permissive- /Zc:wchar_t /Zc:forScope /Zc:inline /std:c++17 /Fo"DEBUG\\" /Fd"DEBUG\VC142.PDB" /external:env:EXTERNAL_INCLUDE /external:W3 /Gd /TP /analyze- /FC C:\USERS\GLIZA\DESKTOP\ANUL 2 DE FACULTATE\SEMESTRUL I\STANDARD TO MODERN C++\QUARTO.GIT\QUARTO\QUARTO\UNUSEDPIECES.CPP
^C:\USERS\GLIZA\DESKTOP\ANUL 2 DE FACULTATE\SEMESTRUL I\STANDARD TO MODERN C++\QUARTO.GIT\QUARTO\QUARTO\PLAYER.CPP
/c /ZI /JMC /nologo /W3 /WX- /diagnostics:column /sdl /Od /Oy- /D WIN32 /D _DEBUG /D _CONSOLE /D _UNICODE /D UNICODE /Gm- /EHsc /RTC1 /MDd /GS /fp:precise /permissive- /Zc:wchar_t /Zc:forScope /Zc:inline /std:c++17 /Fo"DEBUG\\" /Fd"DEBUG\VC142.PDB" /external:env:EXTERNAL_INCLUDE /external:W3 /Gd /TP /analyze- /FC C:\USERS\GLIZA\DESKTOP\ANUL 2 DE FACULTATE\SEMESTRUL I\STANDARD TO MODERN C++\QUARTO.GIT\QUARTO\QUARTO\PLAYER.CPP
^C:\USERS\GLIZA\DESKTOP\ANUL 2 DE FACULTATE\SEMESTRUL I\STANDARD TO MODERN C++\QUARTO.GIT\QUARTO\QUARTO\QUARTO.CPP
/c /ZI /JMC /nologo /W3 /WX- /diagnostics:column /sdl /Od /Oy- /D WIN32 /D _DEBUG /D _CONSOLE /D _UNICODE /D UNICODE /Gm- /EHsc /RTC1 /MDd /GS /fp:precise /permissive- /Zc:wchar_t /Zc:forScope /Zc:inline /std:c++17 /Fo"DEBUG\\" /Fd"DEBUG\VC142.PDB" /external:env:EXTERNAL_INCLUDE /external:W3 /Gd /TP /analyze- /FC C:\USERS\GLIZA\DESKTOP\ANUL 2 DE FACULTATE\SEMESTRUL I\STANDARD TO MODERN C++\QUARTO.GIT\QUARTO\QUARTO\QUARTO.CPP
